{
    "type": "application",
    "source-directories": [
        "src"
    ],
    "elm-version": "0.19.1",
    "dependencies": {
        "direct": {
            "elm/browser": "1.0.0",
            "elm/core": "1.0.0",
            "elm/html": "1.0.0",
            "elm/json": "1.0.0",
            "elm/random": "1.0.0",
            "elm/svg": "1.0.0",
            "elm/time": "1.0.0",
            "elm-community/list-extra": "8.0.0"
        },
        "indirect": {
            "elm/url": "1.0.0",
            "elm/virtual-dom": "1.0.0"
        }
    },
    "test-dependencies": {
        "direct": {
            "elm-explorations/test": "1.1.0"
        },
        "indirect": {}
    }
}
